﻿{
  "iisSettings": {
    "windowsAuthentication": false, 
    "anonymousAuthentication": true, 
    "iisExpress": {
      "applicationUrl": "http://localhost:53546",
      "sslPort": 44301
    }
  },
  "profiles": {
    "IIS Express": {
      "commandName": "IISExpress",
      "launchBrowser": true,
      "environmentVariables": {
        //"ASPNETCORE_ENVIRONMENT": "Production"
        //"ASPNETCORE_ENVIRONMENT": "Development"
        "ASPNETCORE_ENVIRONMENT": "Kakugodno"
        //"ASPNETCORE_ENVIRONMENT": "Stagening"
        //"ASPNETCORE_ENVIRONMENT": "Good"
      }
    },
    "Book_WebApiConfigurationMiddleWare": {
      "commandName": "Project",
      "launchBrowser": true,
      "applicationUrl": "https://localhost:5001;http://localhost:5000",
      "environmentVariables": {
        "ASPNETCORE_ENVIRONMENT": "Development"
      }
    }
  }
}
